examples/semaphor/dump.vcd
$date
	Mon Apr 26 23:46:59 2021
$end
$version
	Bluespec VCD dumper 2.1
$end
$timescale
	1 us
$end
$scope module main $end
$scope module top $end
$var reg 1 ! CLK $end
$var reg 1 ! CLK $end
$var reg 1 " RST_N $end
$var reg 32 # b__h3308 $end
$var reg 1 $ dut_lampAmberE____d25 $end
$var reg 1 % dut_lampAmberNS____d10 $end
$var reg 1 & dut_lampAmberPed____d55 $end
$var reg 1 ' dut_lampAmberW____d40 $end
$var reg 1 ( dut_lampGreenE____d30 $end
$var reg 1 ) dut_lampGreenNS____d15 $end
$var reg 1 * dut_lampGreenPed____d60 $end
$var reg 1 + dut_lampGreenW____d45 $end
$var reg 1 , dut_lampRedE____d20 $end
$var reg 1 - dut_lampRedNS____d6 $end
$var reg 1 . dut_lampRedPed____d50 $end
$var reg 1 / dut_lampRedW____d35 $end
$var reg 1 0 lamps_0_prev__h1260 $end
$var reg 1 1 lamps_10_prev__h1459 $end
$var reg 1 2 lamps_11_prev__h1479 $end
$var reg 1 3 lamps_1_prev__h1279 $end
$var reg 1 4 lamps_2_prev__h1299 $end
$var reg 1 5 lamps_3_prev__h1319 $end
$var reg 1 6 lamps_4_prev__h1339 $end
$var reg 1 7 lamps_5_prev__h1359 $end
$var reg 1 8 lamps_6_prev__h1379 $end
$var reg 1 9 lamps_7_prev__h1399 $end
$var reg 1 : lamps_8_prev__h1419 $end
$var reg 1 ; lamps_9_prev__h1439 $end
$var reg 1 M carE $end
$var reg 1 N carN $end
$var reg 1 O carS $end
$var reg 1 P carW $end
$var reg 32 Q ctr $end
$var reg 1 R lamps_0_prev $end
$var reg 1 S lamps_10_prev $end
$var reg 1 T lamps_11_prev $end
$var reg 1 U lamps_1_prev $end
$var reg 1 V lamps_2_prev $end
$var reg 1 W lamps_3_prev $end
$var reg 1 X lamps_4_prev $end
$var reg 1 Y lamps_5_prev $end
$var reg 1 Z lamps_6_prev $end
$var reg 1 [ lamps_7_prev $end
$var reg 1 \ lamps_8_prev $end
$var reg 1 ] lamps_9_prev $end
$scope module dut $end
$var reg 1 ! CLK $end
$var reg 1 ^ RST_N $end
$var reg 5 _ b__h360 $end
$var reg 3 ` next_green__h603 $end
$var reg 1 a ped_EQ_0___d22 $end
$var reg 1 b ped_EQ_1___d16 $end
$var reg 2 c ped__h382 $end
$var reg 5 d secs_PLUS_1___d2 $end
$var reg 1 e state_EQ_1___d55 $end
$var reg 1 f state_EQ_2___d59 $end
$var reg 1 g state_EQ_3___d63 $end
$var reg 1 h state_EQ_4___d65 $end
$var reg 1 i state_EQ_5___d67 $end
$var reg 1 j state_EQ_6___d69 $end
$var reg 3 k state__h372 $end
$var reg 1 l RDY_set_car_state_E $end
$var reg 1 m RDY_set_car_state_N $end
$var reg 1 n RDY_set_car_state_S $end
$var reg 1 o RDY_set_car_state_W $end
$var reg 1 y car_sensorE $end
$var reg 1 z car_sensorN $end
$var reg 1 { car_sensorS $end
$var reg 1 | car_sensorW $end
$var reg 3 } next_green $end
$var reg 2 ~ ped $end
$var reg 1 "! ped_request $end
$var reg 5 "" secs $end
$var reg 3 "# state $end
$upscope $end
$upscope $end
$upscope $end
$enddefinitions $end
1!
0"
b10101010101010101010101010101010 #
0$
1%
1&
0'
0(
0)
0*
0+
1,
0-
0.
1/
00
01
02
03
04
05
06
07
08
09
0:
0;
0M
0N
0O
0P
b0 Q
0R
0S
0T
0U
0V
0W
0X
0Y
0Z
0[
0\
0]
0^
b1010 _
b0 `
0a
0b
b10 c
b1011 d
0e
1f
0g
0h
0i
0j
b10 k
1l
1m
1n
1o
1y
1z
1{
1|
b1 }
b0 ~
0"!
b0 ""
b0 "#
b0 #
0%
0&
1-
1.
b0 _
1a
b0 c
b1 d
0f
b0 k
#5
0!
1"
1^
#10
b1 #
10
15
18
1;
b1 _
b1 `
b10 d
1!
b1 Q
1R
1W
1Z
1]
0y
0z
0{
0|
b1 ""
#15
0!
#20
b10 #
1!
b10 Q
#25
0!
#30
b11 #
1!
b11 Q
#35
0!
#40
b100 #
1!
b100 Q
#45
0!
#50
b101 #
1!
b101 Q
#55
0!
#60
b110 #
1!
b110 Q
#65
0!
#70
b111 #
1!
b111 Q
#75
0!
#80
b1000 #
1!
b1000 Q
#85
0!
#90
b1001 #
1!
b1001 Q
#95
0!
#100
b1010 #
1!
b1010 Q
#105
0!
#110
b1011 #
1!
b1011 Q
#115
0!
#120
b1100 #
1!
b1100 Q
#125
0!
#130
b1101 #
1!
b1101 Q
#135
0!
#140
b1110 #
1!
b1110 Q
#145
0!
#150
b1111 #
1!
b1111 Q
#155
0!
#160
b10000 #
1!
b10000 Q
#165
0!
#170
b10001 #
1!
b10001 Q
#175
0!
#180
b10010 #
1!
b10010 Q
#185
0!
#190
b10011 #
1!
b10011 Q
#195
0!
#200
b10100 #
1!
b10100 Q
#205
0!
#210
b10101 #
1!
b10101 Q
#215
0!
#220
b10110 #
1!
b10110 Q
#225
0!
#230
b10111 #
1!
b10111 Q
#235
0!
#240
b11000 #
1!
b11000 Q
#245
0!
#250
b11001 #
1!
b11001 Q
#255
0!
#260
b11010 #
1!
b11010 Q
#265
0!
#270
b11011 #
1!
b11011 Q
#275
0!
#280
b11100 #
1!
b11100 Q
#285
0!
#290
b11101 #
1!
b11101 Q
#295
0!
#300
b11110 #
1!
b11110 Q
#305
0!
#310
b11111 #
1!
b11111 Q
#315
0!
#320
b100000 #
1!
b100000 Q
#325
0!
#330
b100001 #
1!
b100001 Q
#335
0!
#340
b100010 #
1!
b100010 Q
#345
0!
#350
b100011 #
1!
b100011 Q
#355
0!
#360
b100100 #
1!
b100100 Q
#365
0!
#370
b100101 #
1!
b100101 Q
#375
0!
#380
b100110 #
1!
b100110 Q
#385
0!
#390
b100111 #
1!
b100111 Q
#395
0!
#400
b101000 #
1!
b101000 Q
#405
0!
#410
b101001 #
1!
b101001 Q
#415
0!
#420
b101010 #
1!
b101010 Q
#425
0!
#430
b101011 #
1!
b101011 Q
#435
0!
#440
b101100 #
1!
b101100 Q
#445
0!
#450
b101101 #
1!
b101101 Q
#455
0!
#460
b101110 #
1!
b101110 Q
#465
0!
#470
b101111 #
1!
b101111 Q
#475
0!
#480
b110000 #
1!
b110000 Q
#485
0!
#490
b110001 #
1!
b110001 Q
#495
0!
#500
b110010 #
1!
b110010 Q
#505
0!
#510
b110011 #
1!
b110011 Q
#515
0!
#520
b110100 #
1!
b110100 Q
#525
0!
#530
b110101 #
1!
b110101 Q
#535
0!
#540
b110110 #
1!
b110110 Q
#545
0!
#550
b110111 #
1!
b110111 Q
#555
0!
#560
b111000 #
1!
b111000 Q
#565
0!
#570
b111001 #
1!
b111001 Q
#575
0!
#580
b111010 #
1!
b111010 Q
#585
0!
#590
b111011 #
1!
b111011 Q
#595
0!
#600
b111100 #
1!
b111100 Q
#605
0!
#610
b111101 #
1!
b111101 Q
#615
0!
#620
b111110 #
1!
b111110 Q
#625
0!
#630
b111111 #
1!
b111111 Q
#635
0!
#640
b1000000 #
1!
b1000000 Q
#645
0!
#650
b1000001 #
1!
b1000001 Q
#655
0!
#660
b1000010 #
1!
b1000010 Q
#665
0!
#670
b1000011 #
1!
b1000011 Q
#675
0!
#680
b1000100 #
1!
b1000100 Q
#685
0!
#690
b1000101 #
1!
b1000101 Q
#695
0!
#700
b1000110 #
1!
b1000110 Q
#705
0!
#710
b1000111 #
1!
b1000111 Q
#715
0!
#720
b1001000 #
1!
b1001000 Q
#725
0!
#730
b1001001 #
1!
b1001001 Q
#735
0!
#740
b1001010 #
1!
b1001010 Q
#745
0!
#750
b1001011 #
1!
b1001011 Q
#755
0!
#760
b1001100 #
1!
b1001100 Q
#765
0!
#770
b1001101 #
1!
b1001101 Q
#775
0!
#780
b1001110 #
1!
b1001110 Q
#785
0!
#790
b1001111 #
1!
b1001111 Q
#795
0!
#800
b1010000 #
1!
b1010000 Q
#805
0!
#810
b1010001 #
1!
b1010001 Q
#815
0!
#820
b1010010 #
1!
b1010010 Q
#825
0!
#830
b1010011 #
1!
b1010011 Q
#835
0!
#840
b1010100 #
1!
b1010100 Q
#845
0!
#850
b1010101 #
1!
b1010101 Q
#855
0!
#860
b1010110 #
1!
b1010110 Q
#865
0!
#870
b1010111 #
1!
b1010111 Q
#875
0!
#880
b1011000 #
1!
b1011000 Q
#885
0!
#890
b1011001 #
1!
b1011001 Q
#895
0!
#900
b1011010 #
1!
b1011010 Q
#905
0!
#910
b1011011 #
1!
b1011011 Q
#915
0!
#920
b1011100 #
1!
b1011100 Q
#925
0!
#930
b1011101 #
1!
b1011101 Q
#935
0!
#940
b1011110 #
1!
b1011110 Q
#945
0!
#950
b1011111 #
1!
b1011111 Q
#955
0!
#960
b1100000 #
1!
b1100000 Q
#965
0!
#970
b1100001 #
1!
b1100001 Q
#975
0!
#980
b1100010 #
1!
b1100010 Q
#985
0!
#990
b1100011 #
1!
b1100011 Q
#995
0!
#1000
b1100100 #
1!
b1100100 Q
#1005
0!
#1010
b1100101 #
1!
b1100101 Q
#1015
0!
#1020
b1100110 #
1!
b1100110 Q
#1025
0!
#1030
b1100111 #
1!
b1100111 Q
#1035
0!
#1040
b1101000 #
1!
b1101000 Q
#1045
0!
#1050
b1101001 #
1!
b1101001 Q
#1055
0!
#1060
b1101010 #
1!
b1101010 Q
#1065
0!
#1070
b1101011 #
1!
b1101011 Q
#1075
0!
#1080
b1101100 #
1!
b1101100 Q
#1085
0!
#1090
b1101101 #
1!
b1101101 Q
#1095
0!
#1100
b1101110 #
1!
b1101110 Q
#1105
0!
#1110
b1101111 #
1!
b1101111 Q
#1115
0!
#1120
b1110000 #
1!
b1110000 Q
#1125
0!
#1130
b1110001 #
1!
b1110001 Q
#1135
0!
#1140
b1110010 #
1!
b1110010 Q
#1145
0!
#1150
b1110011 #
1!
b1110011 Q
#1155
0!
#1160
b1110100 #
1!
b1110100 Q
#1165
0!
#1170
b1110101 #
1!
b1110101 Q
#1175
0!
#1180
b1110110 #
1!
b1110110 Q
#1185
0!
#1190
b1110111 #
1!
b1110111 Q
#1195
0!
#1200
b1111000 #
1!
b1111000 Q
#1205
0!
#1210
b1111001 #
1!
b1111001 Q
#1215
0!
#1220
b1111010 #
1!
b1111010 Q
#1225
0!
#1230
b1111011 #
1!
b1111011 Q
#1235
0!
#1240
b1111100 #
1!
b1111100 Q
#1245
0!
#1250
b1111101 #
1!
b1111101 Q
#1255
0!
#1260
b1111110 #
1!
b1111110 Q
#1265
0!
#1270
b1111111 #
1!
b1111111 Q
#1275
0!
#1280
b10000000 #
1!
b10000000 Q
#1285
0!
#1290
b10000001 #
1!
b10000001 Q
#1295
0!
#1300
b10000010 #
1!
b10000010 Q
#1305
0!
#1310
b10000011 #
1!
b10000011 Q
#1315
0!
#1320
b10000100 #
1!
b10000100 Q
#1325
0!
#1330
b10000101 #
1!
b10000101 Q
#1335
0!
#1340
b10000110 #
1!
b10000110 Q
#1345
0!
#1350
b10000111 #
1!
b10000111 Q
#1355
0!
#1360
b10001000 #
1!
b10001000 Q
#1365
0!
#1370
b10001001 #
1!
b10001001 Q
#1375
0!
#1380
b10001010 #
1!
b10001010 Q
#1385
0!
#1390
b10001011 #
1!
b10001011 Q
#1395
0!
#1400
b10001100 #
1!
b10001100 Q
#1405
0!
#1410
b10001101 #
1!
b10001101 Q
#1415
0!
#1420
b10001110 #
1!
b10001110 Q
#1425
0!
#1430
b10001111 #
1!
b10001111 Q
#1435
0!
#1440
b10010000 #
1!
b10010000 Q
#1445
0!
#1450
b10010001 #
1!
b10010001 Q
#1455
0!
#1460
b10010010 #
1!
b10010010 Q
#1465
0!
#1470
b10010011 #
1!
b10010011 Q
#1475
0!
#1480
b10010100 #
1!
b10010100 Q
#1485
0!
#1490
b10010101 #
1!
b10010101 Q
#1495
0!
#1500
b10010110 #
1!
b10010110 Q
#1505
0!
#1510
b10010111 #
1!
b10010111 Q
#1515
0!
#1520
b10011000 #
1!
b10011000 Q
#1525
0!
#1530
b10011001 #
1!
b10011001 Q
#1535
0!
#1540
b10011010 #
1!
b10011010 Q
#1545
0!
#1550
b10011011 #
1!
b10011011 Q
#1555
0!
#1560
b10011100 #
1!
b10011100 Q
#1565
0!
#1570
b10011101 #
1!
b10011101 Q
#1575
0!
#1580
b10011110 #
1!
b10011110 Q
#1585
0!
#1590
b10011111 #
1!
b10011111 Q
#1595
0!
#1600
b10100000 #
1!
b10100000 Q
#1605
0!
#1610
b10100001 #
1!
b10100001 Q
#1615
0!
#1620
b10100010 #
1!
b10100010 Q
#1625
0!
#1630
b10100011 #
1!
b10100011 Q
#1635
0!
#1640
b10100100 #
1!
b10100100 Q
#1645
0!
#1650
b10100101 #
1!
b10100101 Q
#1655
0!
#1660
b10100110 #
1!
b10100110 Q
#1665
0!
#1670
b10100111 #
1!
b10100111 Q
#1675
0!
#1680
b10101000 #
1!
b10101000 Q
#1685
0!
#1690
b10101001 #
1!
b10101001 Q
#1695
0!
#1700
b10101010 #
1!
b10101010 Q
#1705
0!
#1710
b10101011 #
1!
b10101011 Q
#1715
0!
#1720
b10101100 #
1!
b10101100 Q
#1725
0!
#1730
b10101101 #
1!
b10101101 Q
#1735
0!
#1740
b10101110 #
1!
b10101110 Q
#1745
0!
#1750
b10101111 #
1!
b10101111 Q
#1755
0!
#1760
b10110000 #
1!
b10110000 Q
#1765
0!
#1770
b10110001 #
1!
b10110001 Q
#1775
0!
#1780
b10110010 #
1!
b10110010 Q
#1785
0!
#1790
b10110011 #
1!
b10110011 Q
#1795
0!
#1800
b10110100 #
1!
b10110100 Q
#1805
0!
#1810
b10110101 #
1!
b10110101 Q
#1815
0!
#1820
b10110110 #
1!
b10110110 Q
#1825
0!
#1830
b10110111 #
1!
b10110111 Q
#1835
0!
#1840
b10111000 #
1!
b10111000 Q
#1845
0!
#1850
b10111001 #
1!
b10111001 Q
#1855
0!
#1860
b10111010 #
1!
b10111010 Q
#1865
0!
#1870
b10111011 #
1!
b10111011 Q
#1875
0!
#1880
b10111100 #
1!
b10111100 Q
#1885
0!
#1890
b10111101 #
1!
b10111101 Q
#1895
0!
#1900
b10111110 #
1!
b10111110 Q
#1905
0!
#1910
b10111111 #
1!
b10111111 Q
#1915
0!
#1920
b11000000 #
1!
b11000000 Q
#1925
0!
#1930
b11000001 #
1!
b11000001 Q
#1935
0!
#1940
b11000010 #
1!
b11000010 Q
#1945
0!
#1950
b11000011 #
1!
b11000011 Q
#1955
0!
#1960
b11000100 #
1!
b11000100 Q
#1965
0!
#1970
b11000101 #
1!
b11000101 Q
#1975
0!
#1980
b11000110 #
1!
b11000110 Q
#1985
0!
#1990
b11000111 #
1!
b11000111 Q
#1995
0!
#2000
b11001000 #
1!
b11001000 Q
#2005
0!
#2010
b11001001 #
1!
b11001001 Q
#2015
0!
#2020
b11001010 #
1!
b11001010 Q
#2025
0!
#2030
b11001011 #
1!
b11001011 Q
#2035
0!
#2040
b11001100 #
1!
b11001100 Q
#2045
0!
#2050
b11001101 #
1!
b11001101 Q
#2055
0!
#2060
b11001110 #
1!
b11001110 Q
#2065
0!
#2070
b11001111 #
1!
b11001111 Q
#2075
0!
#2080
b11010000 #
1!
b11010000 Q
#2085
0!
#2090
b11010001 #
1!
b11010001 Q
#2095
0!
#2100
b11010010 #
1!
b11010010 Q
#2105
0!
#2110
b11010011 #
1!
b11010011 Q
#2115
0!
#2120
b11010100 #
1!
b11010100 Q
#2125
0!
#2130
b11010101 #
1!
b11010101 Q
#2135
0!
#2140
b11010110 #
1!
b11010110 Q
#2145
0!
#2150
b11010111 #
1!
b11010111 Q
#2155
0!
#2160
b11011000 #
1!
b11011000 Q
#2165
0!
#2170
b11011001 #
1!
b11011001 Q
#2175
0!
#2180
b11011010 #
1!
b11011010 Q
#2185
0!
#2190
b11011011 #
1!
b11011011 Q
#2195
0!
#2200
b11011100 #
1!
b11011100 Q
#2205
0!
#2210
b11011101 #
1!
b11011101 Q
#2215
0!
#2220
b11011110 #
1!
b11011110 Q
#2225
0!
#2230
b11011111 #
1!
b11011111 Q
#2235
0!
#2240
b11100000 #
1!
b11100000 Q
#2245
0!
#2250
b11100001 #
1!
b11100001 Q
#2255
0!
#2260
b11100010 #
1!
b11100010 Q
#2265
0!
#2270
b11100011 #
1!
b11100011 Q
#2275
0!
#2280
b11100100 #
1!
b11100100 Q
#2285
0!
#2290
b11100101 #
1!
b11100101 Q
#2295
0!
#2300
b11100110 #
1!
b11100110 Q
#2305
0!
#2310
b11100111 #
1!
b11100111 Q
#2315
0!
#2320
b11101000 #
1!
b11101000 Q
#2325
0!
#2330
b11101001 #
1!
b11101001 Q
#2335
0!
#2340
b11101010 #
1!
b11101010 Q
#2345
0!
#2350
b11101011 #
1!
b11101011 Q
#2355
0!
#2360
b11101100 #
1!
b11101100 Q
#2365
0!
#2370
b11101101 #
1!
b11101101 Q
#2375
0!
#2380
b11101110 #
1!
b11101110 Q
#2385
0!
#2390
b11101111 #
1!
b11101111 Q
#2395
0!
#2400
b11110000 #
1!
b11110000 Q
#2405
0!
#2410
b11110001 #
1!
b11110001 Q
#2415
0!
#2420
b11110010 #
1!
b11110010 Q
#2425
0!
#2430
b11110011 #
1!
b11110011 Q
#2435
0!
#2440
b11110100 #
1!
b11110100 Q
#2445
0!
#2450
b11110101 #
1!
b11110101 Q
#2455
0!
#2460
b11110110 #
1!
b11110110 Q
#2465
0!
#2470
b11110111 #
1!
b11110111 Q
#2475
0!
#2480
b11111000 #
1!
b11111000 Q
#2485
0!
#2490
b11111001 #
1!
b11111001 Q
#2495
0!
#2500
b11111010 #
1!
b11111010 Q
#2505
0!
#2510
b11111011 #
1!
b11111011 Q
#2515
0!
#2520
b11111100 #
1!
b11111100 Q
#2525
0!
#2530
b11111101 #
1!
b11111101 Q
#2535
0!
#2540
b11111110 #
1!
b11111110 Q
#2545
0!
#2550
b11111111 #
1!
b11111111 Q
#2555
0!
#2560
b100000000 #
1!
b100000000 Q
#2565
0!
#2570
b100000001 #
1!
b100000001 Q
#2575
0!
#2580
b100000010 #
1!
b100000010 Q
#2585
0!
#2590
b100000011 #
1!
b100000011 Q
#2595
0!
#2600
b100000100 #
1!
b100000100 Q
#2605
0!
#2610
b100000101 #
1!
b100000101 Q
#2615
0!
#2620
b100000110 #
1!
b100000110 Q
#2625
0!
#2630
b100000111 #
1!
b100000111 Q
#2635
0!
#2640
b100001000 #
1!
b100001000 Q
#2645
0!
#2650
b100001001 #
1!
b100001001 Q
#2655
0!
#2660
b100001010 #
1!
b100001010 Q
#2665
0!
#2670
b100001011 #
1!
b100001011 Q
#2675
0!
#2680
b100001100 #
1!
b100001100 Q
#2685
0!
#2690
b100001101 #
1!
b100001101 Q
#2695
0!
#2700
b100001110 #
1!
b100001110 Q
#2705
0!
#2710
b100001111 #
1!
b100001111 Q
#2715
0!
#2720
b100010000 #
1!
b100010000 Q
#2725
0!
#2730
b100010001 #
1!
b100010001 Q
#2735
0!
#2740
b100010010 #
1!
b100010010 Q
#2745
0!
#2750
b100010011 #
1!
b100010011 Q
#2755
0!
#2760
b100010100 #
1!
b100010100 Q
#2765
0!
#2770
b100010101 #
1!
b100010101 Q
#2775
0!
#2780
b100010110 #
1!
b100010110 Q
#2785
0!
#2790
b100010111 #
1!
b100010111 Q
#2795
0!
#2800
b100011000 #
1!
b100011000 Q
#2805
0!
#2810
b100011001 #
1!
b100011001 Q
#2815
0!
#2820
b100011010 #
1!
b100011010 Q
#2825
0!
#2830
b100011011 #
1!
b100011011 Q
#2835
0!
#2840
b100011100 #
1!
b100011100 Q
#2845
0!
#2850
b100011101 #
1!
b100011101 Q
#2855
0!
#2860
b100011110 #
1!
b100011110 Q
#2865
0!
#2870
b100011111 #
1!
b100011111 Q
#2875
0!
#2880
b100100000 #
1!
b100100000 Q
#2885
0!
#2890
b100100001 #
1!
b100100001 Q
#2895
0!
#2900
b100100010 #
1!
b100100010 Q
#2905
0!
#2910
b100100011 #
1!
b100100011 Q
#2915
0!
#2920
b100100100 #
1!
b100100100 Q
#2925
0!
#2930
b100100101 #
1!
b100100101 Q
#2935
0!
#2940
b100100110 #
1!
b100100110 Q
#2945
0!
#2950
b100100111 #
1!
b100100111 Q
#2955
0!
#2960
b100101000 #
1!
b100101000 Q
#2965
0!
#2970
b100101001 #
1!
b100101001 Q
#2975
0!
#2980
b100101010 #
1!
b100101010 Q
#2985
0!
#2990
b100101011 #
1!
b100101011 Q
#2995
0!
#3000
b100101100 #
1!
b100101100 Q
#3005
0!
#3010
b100101101 #
1!
b100101101 Q
#3015
0!
#3020
b100101110 #
1!
b100101110 Q
#3025
0!
#3030
b100101111 #
1!
b100101111 Q
#3035
0!
#3040
b100110000 #
1!
b100110000 Q
#3045
0!
#3050
b100110001 #
1!
b100110001 Q
#3055
0!
#3060
b100110010 #
1!
b100110010 Q
#3065
0!
#3070
b100110011 #
1!
b100110011 Q
#3075
0!
#3080
b100110100 #
1!
b100110100 Q
#3085
0!
#3090
b100110101 #
1!
b100110101 Q
#3095
0!
#3100
b100110110 #
1!
b100110110 Q
#3105
0!
#3110
b100110111 #
1!
b100110111 Q
#3115
0!
#3120
b100111000 #
1!
b100111000 Q
#3125
0!
#3130
b100111001 #
1!
b100111001 Q
#3135
0!
#3140
b100111010 #
1!
b100111010 Q
#3145
0!
#3150
b100111011 #
1!
b100111011 Q
#3155
0!
#3160
b100111100 #
1!
b100111100 Q
#3165
0!
#3170
b100111101 #
1!
b100111101 Q
#3175
0!
#3180
b100111110 #
1!
b100111110 Q
#3185
0!
#3190
b100111111 #
1!
b100111111 Q
#3195
0!
#3200
b101000000 #
1!
b101000000 Q
#3205
0!
#3210
b101000001 #
1!
b101000001 Q
#3215
0!
#3220
b101000010 #
1!
b101000010 Q
#3225
0!
#3230
b101000011 #
1!
b101000011 Q
#3235
0!
#3240
b101000100 #
1!
b101000100 Q
#3245
0!
#3250
b101000101 #
1!
b101000101 Q
#3255
0!
#3260
b101000110 #
1!
b101000110 Q
#3265
0!
#3270
b101000111 #
1!
b101000111 Q
#3275
0!
#3280
b101001000 #
1!
b101001000 Q
#3285
0!
#3290
b101001001 #
1!
b101001001 Q
#3295
0!
#3300
b101001010 #
1!
b101001010 Q
#3305
0!
#3310
b101001011 #
1!
b101001011 Q
#3315
0!
#3320
b101001100 #
1!
b101001100 Q
#3325
0!
#3330
b101001101 #
1!
b101001101 Q
#3335
0!
#3340
b101001110 #
1!
b101001110 Q
#3345
0!
#3350
b101001111 #
1!
b101001111 Q
#3355
0!
#3360
b101010000 #
1!
b101010000 Q
#3365
0!
#3370
b101010001 #
1!
b101010001 Q
#3375
0!
#3380
b101010010 #
1!
b101010010 Q
#3385
0!
#3390
b101010011 #
1!
b101010011 Q
#3395
0!
#3400
b101010100 #
1!
b101010100 Q
#3405
0!
#3410
b101010101 #
1!
b101010101 Q
#3415
0!
#3420
b101010110 #
1!
b101010110 Q
#3425
0!
#3430
b101010111 #
1!
b101010111 Q
#3435
0!
#3440
b101011000 #
1!
b101011000 Q
#3445
0!
#3450
b101011001 #
1!
b101011001 Q
#3455
0!
#3460
b101011010 #
1!
b101011010 Q
#3465
0!
#3470
b101011011 #
1!
b101011011 Q
#3475
0!
#3480
b101011100 #
1!
b101011100 Q
#3485
0!
#3490
b101011101 #
1!
b101011101 Q
#3495
0!
#3500
b101011110 #
1!
b101011110 Q
#3505
0!
#3510
b101011111 #
1!
b101011111 Q
#3515
0!
#3520
b101100000 #
1!
b101100000 Q
#3525
0!
#3530
b101100001 #
1!
b101100001 Q
#3535
0!
#3540
b101100010 #
1!
b101100010 Q
#3545
0!
#3550
b101100011 #
1!
b101100011 Q
#3555
0!
#3560
b101100100 #
1!
b101100100 Q
#3565
0!
#3570
b101100101 #
1!
b101100101 Q
#3575
0!
#3580
b101100110 #
1!
b101100110 Q
#3585
0!
#3590
b101100111 #
1!
b101100111 Q
#3595
0!
#3600
b101101000 #
1!
b101101000 Q
#3605
0!
#3610
b101101001 #
1!
b101101001 Q
#3615
0!
#3620
b101101010 #
1!
b101101010 Q
#3625
0!
#3630
b101101011 #
1!
b101101011 Q
#3635
0!
#3640
b101101100 #
1!
b101101100 Q
#3645
0!
#3650
b101101101 #
1!
b101101101 Q
#3655
0!
#3660
b101101110 #
1!
b101101110 Q
#3665
0!
#3670
b101101111 #
1!
b101101111 Q
#3675
0!
#3680
b101110000 #
1!
b101110000 Q
#3685
0!
#3690
b101110001 #
1!
b101110001 Q
#3695
0!
#3700
b101110010 #
1!
b101110010 Q
#3705
0!
#3710
b101110011 #
1!
b101110011 Q
#3715
0!
#3720
b101110100 #
1!
b101110100 Q
#3725
0!
#3730
b101110101 #
1!
b101110101 Q
#3735
0!
#3740
b101110110 #
1!
b101110110 Q
#3745
0!
#3750
b101110111 #
1!
b101110111 Q
#3755
0!
#3760
b101111000 #
1!
b101111000 Q
#3765
0!
#3770
b101111001 #
1!
b101111001 Q
#3775
0!
#3780
b101111010 #
1!
b101111010 Q
#3785
0!
#3790
b101111011 #
1!
b101111011 Q
#3795
0!
#3800
b101111100 #
1!
b101111100 Q
#3805
0!
#3810
b101111101 #
1!
b101111101 Q
#3815
0!
#3820
b101111110 #
1!
b101111110 Q
#3825
0!
#3830
b101111111 #
1!
b101111111 Q
#3835
0!
#3840
b110000000 #
1!
b110000000 Q
#3845
0!
#3850
b110000001 #
1!
b110000001 Q
#3855
0!
#3860
b110000010 #
1!
b110000010 Q
#3865
0!
#3870
b110000011 #
1!
b110000011 Q
#3875
0!
#3880
b110000100 #
1!
b110000100 Q
#3885
0!
#3890
b110000101 #
1!
b110000101 Q
#3895
0!
#3900
b110000110 #
1!
b110000110 Q
#3905
0!
#3910
b110000111 #
1!
b110000111 Q
#3915
0!
#3920
b110001000 #
1!
b110001000 Q
#3925
0!
#3930
b110001001 #
1!
b110001001 Q
#3935
0!
#3940
b110001010 #
1!
b110001010 Q
#3945
0!
#3950
b110001011 #
1!
b110001011 Q
#3955
0!
#3960
b110001100 #
1!
b110001100 Q
#3965
0!
#3970
b110001101 #
1!
b110001101 Q
#3975
0!
#3980
b110001110 #
1!
b110001110 Q
#3985
0!
#3990
b110001111 #
1!
b110001111 Q
#3995
0!
#4000
b110010000 #
1!
b110010000 Q
#4005
0!
#4010
b110010001 #
1!
b110010001 Q
#4015
0!
#4020
b110010010 #
1!
b110010010 Q
#4025
0!
#4030
b110010011 #
1!
b110010011 Q
#4035
0!
#4040
b110010100 #
1!
b110010100 Q
#4045
0!
#4050
b110010101 #
1!
b110010101 Q
#4055
0!
#4060
b110010110 #
1!
b110010110 Q
#4065
0!
#4070
b110010111 #
1!
b110010111 Q
#4075
0!
#4080
b110011000 #
1!
b110011000 Q
#4085
0!
#4090
b110011001 #
1!
b110011001 Q
#4095
0!
#4100
b110011010 #
1!
b110011010 Q
#4105
0!
#4110
b110011011 #
1!
b110011011 Q
#4115
0!
#4120
b110011100 #
1!
b110011100 Q
#4125
0!
#4130
b110011101 #
1!
b110011101 Q
#4135
0!
#4140
b110011110 #
1!
b110011110 Q
#4145
0!
#4150
b110011111 #
1!
b110011111 Q
#4155
0!
#4160
b110100000 #
1!
b110100000 Q
#4165
0!
#4170
b110100001 #
1!
b110100001 Q
#4175
0!
#4180
b110100010 #
1!
b110100010 Q
#4185
0!
#4190
b110100011 #
1!
b110100011 Q
#4195
0!
#4200
b110100100 #
1!
b110100100 Q
#4205
0!
#4210
b110100101 #
1!
b110100101 Q
#4215
0!
#4220
b110100110 #
1!
b110100110 Q
#4225
0!
#4230
b110100111 #
1!
b110100111 Q
#4235
0!
#4240
b110101000 #
1!
b110101000 Q
#4245
0!
#4250
b110101001 #
1!
b110101001 Q
#4255
0!
#4260
b110101010 #
1!
b110101010 Q
#4265
0!
#4270
b110101011 #
1!
b110101011 Q
#4275
0!
#4280
b110101100 #
1!
b110101100 Q
#4285
0!
#4290
b110101101 #
1!
b110101101 Q
#4295
0!
#4300
b110101110 #
1!
b110101110 Q
#4305
0!
#4310
b110101111 #
1!
b110101111 Q
#4315
0!
#4320
b110110000 #
1!
b110110000 Q
#4325
0!
#4330
b110110001 #
1!
b110110001 Q
#4335
0!
#4340
b110110010 #
1!
b110110010 Q
#4345
0!
#4350
b110110011 #
1!
b110110011 Q
#4355
0!
#4360
b110110100 #
1!
b110110100 Q
#4365
0!
#4370
b110110101 #
1!
b110110101 Q
#4375
0!
#4380
b110110110 #
1!
b110110110 Q
#4385
0!
#4390
b110110111 #
1!
b110110111 Q
#4395
0!
#4400
b110111000 #
1!
b110111000 Q
#4405
0!
#4410
b110111001 #
1!
b110111001 Q
#4415
0!
#4420
b110111010 #
1!
b110111010 Q
#4425
0!
#4430
b110111011 #
1!
b110111011 Q
#4435
0!
#4440
b110111100 #
1!
b110111100 Q
#4445
0!
#4450
b110111101 #
1!
b110111101 Q
#4455
0!
#4460
b110111110 #
1!
b110111110 Q
#4465
0!
#4470
b110111111 #
1!
b110111111 Q
#4475
0!
#4480
b111000000 #
1!
b111000000 Q
#4485
0!
#4490
b111000001 #
1!
b111000001 Q
#4495
0!
#4500
b111000010 #
1!
b111000010 Q
#4505
0!
#4510
b111000011 #
1!
b111000011 Q
#4515
0!
#4520
b111000100 #
1!
b111000100 Q
#4525
0!
#4530
b111000101 #
1!
b111000101 Q
#4535
0!
#4540
b111000110 #
1!
b111000110 Q
#4545
0!
#4550
b111000111 #
1!
b111000111 Q
#4555
0!
#4560
b111001000 #
1!
b111001000 Q
#4565
0!
#4570
b111001001 #
1!
b111001001 Q
#4575
0!
#4580
b111001010 #
1!
b111001010 Q
#4585
0!
#4590
b111001011 #
1!
b111001011 Q
#4595
0!
#4600
b111001100 #
1!
b111001100 Q
#4605
0!
#4610
b111001101 #
1!
b111001101 Q
