examples/semaphor/dump.vcd
$date
	Thu Apr 22 22:16:03 2021
$end
$version
	Bluespec VCD dumper 2.1
$end
$timescale
	1 us
$end
$scope module main $end
$scope module top $end
$var reg 1 ! CLK $end
$var reg 1 ! CLK $end
$var reg 1 " RST_N $end
$var reg 16 # b__h3056 $end
$var reg 1 $ dut_lampAmberE____d21 $end
$var reg 1 % dut_lampAmberNS____d6 $end
$var reg 1 & dut_lampAmberPed____d51 $end
$var reg 1 ' dut_lampAmberW____d36 $end
$var reg 1 ( dut_lampGreenE____d26 $end
$var reg 1 ) dut_lampGreenNS____d11 $end
$var reg 1 * dut_lampGreenPed____d56 $end
$var reg 1 + dut_lampGreenW____d41 $end
$var reg 1 , dut_lampRedE____d16 $end
$var reg 1 - dut_lampRedNS____d2 $end
$var reg 1 . dut_lampRedPed____d46 $end
$var reg 1 / dut_lampRedW____d31 $end
$var reg 1 0 lamps_0_prev__h1005 $end
$var reg 1 1 lamps_10_prev__h1204 $end
$var reg 1 2 lamps_11_prev__h1224 $end
$var reg 1 3 lamps_1_prev__h1024 $end
$var reg 1 4 lamps_2_prev__h1044 $end
$var reg 1 5 lamps_3_prev__h1064 $end
$var reg 1 6 lamps_4_prev__h1084 $end
$var reg 1 7 lamps_5_prev__h1104 $end
$var reg 1 8 lamps_6_prev__h1124 $end
$var reg 1 9 lamps_7_prev__h1144 $end
$var reg 1 : lamps_8_prev__h1164 $end
$var reg 1 ; lamps_9_prev__h1184 $end
$var reg 16 I ctr $end
$var reg 1 J lamps_0_prev $end
$var reg 1 K lamps_10_prev $end
$var reg 1 L lamps_11_prev $end
$var reg 1 M lamps_1_prev $end
$var reg 1 N lamps_2_prev $end
$var reg 1 O lamps_3_prev $end
$var reg 1 P lamps_4_prev $end
$var reg 1 Q lamps_5_prev $end
$var reg 1 R lamps_6_prev $end
$var reg 1 S lamps_7_prev $end
$var reg 1 T lamps_8_prev $end
$var reg 1 U lamps_9_prev $end
$scope module dut $end
$var reg 1 ! CLK $end
$var reg 1 V RST_N $end
$var reg 5 W b__h234 $end
$var reg 3 X next_green__h357 $end
$var reg 1 Y ped_EQ_0___d6 $end
$var reg 1 Z ped_EQ_1___d25 $end
$var reg 2 [ ped__h256 $end
$var reg 5 \ secs_PLUS_1___d2 $end
$var reg 1 ] state_EQ_1___d28 $end
$var reg 1 ^ state_EQ_2___d32 $end
$var reg 1 _ state_EQ_3___d36 $end
$var reg 1 ` state_EQ_4___d38 $end
$var reg 1 a state_EQ_5___d40 $end
$var reg 1 b state_EQ_6___d42 $end
$var reg 3 c state__h246 $end
$var reg 3 i next_green $end
$var reg 2 j ped $end
$var reg 1 k ped_request $end
$var reg 5 l secs $end
$var reg 3 m state $end
$upscope $end
$upscope $end
$upscope $end
$enddefinitions $end
1!
0"
b1010101010101010 #
0$
1%
1&
0'
0(
0)
0*
0+
1,
0-
0.
1/
00
01
02
03
04
05
06
07
08
09
0:
0;
b0 I
0J
0K
0L
0M
0N
0O
0P
0Q
0R
0S
0T
0U
0V
b1010 W
b0 X
0Y
0Z
b10 [
b1011 \
0]
1^
0_
0`
0a
0b
b10 c
b1 i
b0 j
0k
b0 l
b0 m
b0 #
0%
0&
1-
1.
b0 W
1Y
b0 [
b1 \
0^
b0 c
#5
0!
1"
1V
#10
b1 #
10
15
18
1;
b1 W
b1 X
b10 \
1!
b1 I
1J
1O
1R
1U
b1 l
#15
0!
#20
b10 #
1)
0-
b0 W
b1 \
1]
b1 c
1!
b10 I
b0 l
b1 m
#25
0!
#30
b11 #
00
14
b1 W
b10 \
1!
b11 I
0J
1N
b1 l
#35
0!
#40
b100 #
b10 W
b11 \
1!
b100 I
b10 l
#45
0!
#50
b101 #
b11 W
b100 \
1!
b101 I
b11 l
#55
0!
#60
b110 #
b100 W
b101 \
1!
b110 I
b100 l
#65
0!
#70
b111 #
b101 W
b110 \
1!
b111 I
b101 l
#75
0!
#80
b1000 #
b110 W
b111 \
1!
b1000 I
b110 l
#85
0!
#90
b1001 #
b111 W
b1000 \
1!
b1001 I
b111 l
#95
0!
#100
b1010 #
b1000 W
b1001 \
1!
b1010 I
b1000 l
#105
0!
#110
b1011 #
b1001 W
b1010 \
1!
b1011 I
b1001 l
#115
0!
#120
b1100 #
b1010 W
b1011 \
1!
b1100 I
b1010 l
#125
0!
#130
b1101 #
b1011 W
b1100 \
1!
b1101 I
b1011 l
#135
0!
#140
b1110 #
b1100 W
b1101 \
1!
b1110 I
b1100 l
#145
0!
#150
b1111 #
b1101 W
b1110 \
1!
b1111 I
b1101 l
#155
0!
#160
b10000 #
b1110 W
b1111 \
1!
b10000 I
b1110 l
#165
0!
#170
b10001 #
b1111 W
b10000 \
1!
b10001 I
b1111 l
#175
0!
#180
b10010 #
b10000 W
b10001 \
1!
b10010 I
b10000 l
#185
0!
#190
b10011 #
b10001 W
b10010 \
1!
b10011 I
b10001 l
#195
0!
#200
b10100 #
b10010 W
b10011 \
1!
b10100 I
b10010 l
#205
0!
#210
b10101 #
b10011 W
b10100 \
1!
b10101 I
b10011 l
#215
0!
#220
b10110 #
1%
0)
b0 W
b1 \
0]
1^
b10 c
1!
b10110 I
b0 l
b10 m
#225
0!
#230
b10111 #
13
04
b1 W
b10 \
1!
b10111 I
1M
0N
b1 l
#235
0!
#240
b11000 #
b10 W
b11 \
1!
b11000 I
b10 l
#245
0!
#250
b11001 #
b11 W
b100 \
1!
b11001 I
b11 l
#255
0!
#260
b11010 #
0%
1-
b0 W
b1 \
0^
b0 c
1!
b11010 I
b11 i
b0 l
b0 m
#265
0!
#270
b11011 #
10
03
b1 W
b11 X
b10 \
1!
b11011 I
1J
0M
b1 l
#275
0!
#280
b11100 #
1(
0,
b0 W
b1 \
1_
b11 c
1!
b11100 I
b0 l
b11 m
#285
0!
#290
b11101 #
05
17
b1 W
b10 \
1!
b11101 I
0O
1Q
b1 l
#295
0!
#300
b11110 #
b10 W
b11 \
1!
b11110 I
b10 l
#305
0!
#310
b11111 #
b11 W
b100 \
1!
b11111 I
b11 l
#315
0!
#320
b100000 #
b100 W
b101 \
1!
b100000 I
b100 l
#325
0!
#330
b100001 #
b101 W
b110 \
1!
b100001 I
b101 l
#335
0!
#340
b100010 #
b110 W
b111 \
1!
b100010 I
b110 l
#345
0!
#350
b100011 #
b111 W
b1000 \
1!
b100011 I
b111 l
#355
0!
#360
b100100 #
b1000 W
b1001 \
1!
b100100 I
b1000 l
#365
0!
#370
b100101 #
b1001 W
b1010 \
1!
b100101 I
b1001 l
#375
0!
#380
b100110 #
1$
0(
b0 W
b1 \
0_
1`
b100 c
1!
b100110 I
b0 l
b100 m
#385
0!
#390
b100111 #
16
07
b1 W
b10 \
1!
b100111 I
1P
0Q
b1 l
#395
0!
#400
b101000 #
b10 W
b11 \
1!
b101000 I
b10 l
#405
0!
#410
b101001 #
b11 W
b100 \
1!
b101001 I
b11 l
#415
0!
#420
b101010 #
0$
1,
b0 W
b1 \
0`
b0 c
1!
b101010 I
b101 i
b0 l
b0 m
#425
0!
#430
b101011 #
15
06
b1 W
b101 X
b10 \
1!
b101011 I
1O
0P
b1 l
#435
0!
#440
b101100 #
1+
0/
b0 W
b1 \
1a
b101 c
1!
b101100 I
b0 l
b101 m
#445
0!
#450
b101101 #
08
1:
b1 W
b10 \
1!
b101101 I
0R
1T
b1 l
#455
0!
#460
b101110 #
b10 W
b11 \
1!
b101110 I
b10 l
#465
0!
#470
b101111 #
b11 W
b100 \
1!
b101111 I
b11 l
#475
0!
#480
b110000 #
b100 W
b101 \
1!
b110000 I
b100 l
#485
0!
#490
b110001 #
b101 W
b110 \
1!
b110001 I
b101 l
#495
0!
#500
b110010 #
b110 W
b111 \
1!
b110010 I
b110 l
#505
0!
#510
b110011 #
b111 W
b1000 \
1!
b110011 I
b111 l
#515
0!
#520
b110100 #
b1000 W
b1001 \
1!
b110100 I
b1000 l
#525
0!
#530
b110101 #
b1001 W
b1010 \
1!
b110101 I
b1001 l
#535
0!
#540
b110110 #
1'
0+
b0 W
b1 \
0a
1b
b110 c
1!
b110110 I
b0 l
b110 m
#545
0!
#550
b110111 #
19
0:
b1 W
b10 \
1!
b110111 I
1S
0T
b1 l
#555
0!
#560
b111000 #
b10 W
b11 \
1!
b111000 I
b10 l
#565
0!
#570
b111001 #
b11 W
b100 \
1!
b111001 I
b11 l
#575
0!
#580
b111010 #
0'
1/
b0 W
b1 \
0b
b0 c
1!
b111010 I
b1 i
b0 l
b0 m
#585
0!
#590
b111011 #
18
09
b1 W
b1 X
b10 \
1!
b111011 I
1R
0S
b1 l
#595
0!
#600
b111100 #
1)
0-
b0 W
b1 \
1]
b1 c
1!
b111100 I
b0 l
b1 m
#605
0!
#610
b111101 #
00
14
b1 W
b10 \
1!
b111101 I
0J
1N
b1 l
#615
0!
#620
b111110 #
b10 W
b11 \
1!
b111110 I
b10 l
#625
0!
#630
b111111 #
b11 W
b100 \
1!
b111111 I
b11 l
#635
0!
#640
b1000000 #
b100 W
b101 \
1!
b1000000 I
b100 l
#645
0!
#650
b1000001 #
b101 W
b110 \
1!
b1000001 I
b101 l
#655
0!
#660
b1000010 #
b110 W
b111 \
1!
b1000010 I
b110 l
#665
0!
#670
b1000011 #
b111 W
b1000 \
1!
b1000011 I
b111 l
#675
0!
#680
b1000100 #
b1000 W
b1001 \
1!
b1000100 I
b1000 l
#685
0!
#690
b1000101 #
b1001 W
b1010 \
1!
b1000101 I
b1001 l
#695
0!
#700
b1000110 #
b1010 W
b1011 \
1!
b1000110 I
b1010 l
#705
0!
#710
b1000111 #
b1011 W
b1100 \
1!
b1000111 I
b1011 l
#715
0!
#720
b1001000 #
b1100 W
b1101 \
1!
b1001000 I
b1100 l
#725
0!
#730
b1001001 #
b1101 W
b1110 \
1!
b1001001 I
b1101 l
#735
0!
#740
b1001010 #
b1110 W
b1111 \
1!
b1001010 I
b1110 l
#745
0!
#750
b1001011 #
b1111 W
b10000 \
1!
b1001011 I
b1111 l
#755
0!
#760
b1001100 #
b10000 W
b10001 \
1!
b1001100 I
b10000 l
#765
0!
#770
b1001101 #
b10001 W
b10010 \
1!
b1001101 I
b10001 l
#775
0!
#780
b1001110 #
b10010 W
b10011 \
1!
b1001110 I
b10010 l
#785
0!
#790
b1001111 #
b10011 W
b10100 \
1!
b1001111 I
b10011 l
#795
0!
#800
b1010000 #
1%
0)
b0 W
b1 \
0]
1^
b10 c
1!
b1010000 I
b0 l
b10 m
#805
0!
#810
b1010001 #
13
04
b1 W
b10 \
1!
b1010001 I
1M
0N
b1 l
#815
0!
#820
b1010010 #
b10 W
b11 \
1!
b1010010 I
b10 l
#825
0!
#830
b1010011 #
b11 W
b100 \
1!
b1010011 I
b11 l
#835
0!
#840
b1010100 #
0%
1-
b0 W
b1 \
0^
b0 c
1!
b1010100 I
b11 i
b0 l
b0 m
#845
0!
#850
b1010101 #
10
03
b1 W
b11 X
b10 \
1!
b1010101 I
1J
0M
b1 l
#855
0!
#860
b1010110 #
1(
0,
b0 W
b1 \
1_
b11 c
1!
b1010110 I
b0 l
b11 m
#865
0!
#870
b1010111 #
05
17
b1 W
b10 \
1!
b1010111 I
0O
1Q
b1 l
#875
0!
#880
b1011000 #
b10 W
b11 \
1!
b1011000 I
b10 l
#885
0!
#890
b1011001 #
b11 W
b100 \
1!
b1011001 I
b11 l
#895
0!
#900
b1011010 #
b100 W
b101 \
1!
b1011010 I
b100 l
#905
0!
#910
b1011011 #
b101 W
b110 \
1!
b1011011 I
b101 l
#915
0!
#920
b1011100 #
b110 W
b111 \
1!
b1011100 I
b110 l
#925
0!
#930
b1011101 #
b111 W
b1000 \
1!
b1011101 I
b111 l
#935
0!
#940
b1011110 #
b1000 W
b1001 \
1!
b1011110 I
b1000 l
#945
0!
#950
b1011111 #
b1001 W
b1010 \
1!
b1011111 I
b1001 l
#955
0!
#960
b1100000 #
1$
0(
b0 W
b1 \
0_
1`
b100 c
1!
b1100000 I
b0 l
b100 m
#965
0!
#970
b1100001 #
16
07
b1 W
b10 \
1!
b1100001 I
1P
0Q
b1 l
#975
0!
#980
b1100010 #
b10 W
b11 \
1!
b1100010 I
b10 l
#985
0!
#990
b1100011 #
b11 W
b100 \
1!
b1100011 I
b11 l
#995
0!
#1000
b1100100 #
0$
1,
b0 W
b1 \
0`
b0 c
1!
b1100100 I
b101 i
b0 l
b0 m
#1005
0!
#1010
b1100101 #
15
06
b1 W
b101 X
b10 \
1!
b1100101 I
1O
0P
b1 l
#1015
0!
#1020
b1100110 #
1+
0/
b0 W
b1 \
1a
b101 c
1!
b1100110 I
b0 l
b101 m
#1025
0!
#1030
b1100111 #
08
1:
b1 W
b10 \
1!
b1100111 I
0R
1T
b1 l
#1035
0!
#1040
b1101000 #
b10 W
b11 \
1!
b1101000 I
b10 l
#1045
0!
#1050
b1101001 #
b11 W
b100 \
1!
b1101001 I
b11 l
#1055
0!
#1060
b1101010 #
b100 W
b101 \
1!
b1101010 I
b100 l
#1065
0!
#1070
b1101011 #
b101 W
b110 \
1!
b1101011 I
b101 l
#1075
0!
#1080
b1101100 #
b110 W
b111 \
1!
b1101100 I
b110 l
#1085
0!
#1090
b1101101 #
b111 W
b1000 \
1!
b1101101 I
b111 l
#1095
0!
#1100
b1101110 #
b1000 W
b1001 \
1!
b1101110 I
b1000 l
#1105
0!
#1110
b1101111 #
b1001 W
b1010 \
1!
b1101111 I
b1001 l
#1115
0!
#1120
b1110000 #
1'
0+
b0 W
b1 \
0a
1b
b110 c
1!
b1110000 I
b0 l
b110 m
#1125
0!
#1130
b1110001 #
19
0:
b1 W
b10 \
1!
b1110001 I
1S
0T
b1 l
#1135
0!
#1140
b1110010 #
b10 W
b11 \
1!
b1110010 I
b10 l
#1145
0!
#1150
b1110011 #
b11 W
b100 \
1!
b1110011 I
b11 l
#1155
0!
#1160
b1110100 #
0'
1/
b0 W
b1 \
0b
b0 c
1!
b1110100 I
b1 i
b0 l
b0 m
#1165
0!
#1170
b1110101 #
18
09
b1 W
b1 X
b10 \
1!
b1110101 I
1R
0S
b1 l
#1175
0!
#1180
b1110110 #
1)
0-
b0 W
b1 \
1]
b1 c
1!
b1110110 I
b0 l
b1 m
#1185
0!
#1190
b1110111 #
00
14
b1 W
b10 \
1!
b1110111 I
0J
1N
b1 l
#1195
0!
#1200
b1111000 #
b10 W
b11 \
1!
b1111000 I
b10 l
#1205
0!
#1210
b1111001 #
b11 W
b100 \
1!
b1111001 I
b11 l
#1215
0!
#1220
b1111010 #
b100 W
b101 \
1!
b1111010 I
b100 l
#1225
0!
#1230
b1111011 #
b101 W
b110 \
1!
b1111011 I
b101 l
#1235
0!
#1240
b1111100 #
b110 W
b111 \
1!
b1111100 I
b110 l
#1245
0!
#1250
b1111101 #
b111 W
b1000 \
1!
b1111101 I
b111 l
#1255
0!
#1260
b1111110 #
b1000 W
b1001 \
1!
b1111110 I
b1000 l
#1265
0!
#1270
b1111111 #
b1001 W
b1010 \
1!
b1111111 I
b1001 l
#1275
0!
#1280
b10000000 #
b1010 W
b1011 \
1!
b10000000 I
b1010 l
#1285
0!
#1290
b10000001 #
b1011 W
b1100 \
1!
b10000001 I
b1011 l
#1295
0!
#1300
b10000010 #
b1100 W
b1101 \
1!
b10000010 I
b1100 l
#1305
0!
#1310
b10000011 #
b1101 W
b1110 \
1!
b10000011 I
b1101 l
#1315
0!
#1320
b10000100 #
b1110 W
b1111 \
1!
b10000100 I
b1110 l
#1325
0!
#1330
b10000101 #
b1111 W
b10000 \
1!
b10000101 I
b1111 l
#1335
0!
#1340
b10000110 #
b10000 W
b10001 \
1!
b10000110 I
b10000 l
#1345
0!
#1350
b10000111 #
b10001 W
b10010 \
1!
b10000111 I
b10001 l
#1355
0!
#1360
b10001000 #
b10010 W
b10011 \
1!
b10001000 I
b10010 l
#1365
0!
#1370
b10001001 #
b10011 W
b10100 \
1!
b10001001 I
b10011 l
#1375
0!
#1380
b10001010 #
1%
0)
b0 W
b1 \
0]
1^
b10 c
1!
b10001010 I
b0 l
b10 m
#1385
0!
#1390
b10001011 #
13
04
b1 W
b10 \
1!
b10001011 I
1M
0N
b1 l
#1395
0!
#1400
b10001100 #
b10 W
b11 \
1!
b10001100 I
b10 l
#1405
0!
#1410
b10001101 #
b11 W
b100 \
1!
b10001101 I
b11 l
#1415
0!
#1420
b10001110 #
0%
1-
b0 W
b1 \
0^
b0 c
1!
b10001110 I
b11 i
b0 l
b0 m
#1425
0!
#1430
b10001111 #
10
03
b1 W
b11 X
b10 \
1!
b10001111 I
1J
0M
b1 l
#1435
0!
#1440
b10010000 #
1(
0,
b0 W
b1 \
1_
b11 c
1!
b10010000 I
b0 l
b11 m
#1445
0!
#1450
b10010001 #
05
17
b1 W
b10 \
1!
b10010001 I
0O
1Q
b1 l
#1455
0!
#1460
b10010010 #
b10 W
b11 \
1!
b10010010 I
b10 l
#1465
0!
#1470
b10010011 #
b11 W
b100 \
1!
b10010011 I
b11 l
#1475
0!
#1480
b10010100 #
b100 W
b101 \
1!
b10010100 I
b100 l
#1485
0!
#1490
b10010101 #
b101 W
b110 \
1!
b10010101 I
b101 l
#1495
0!
#1500
b10010110 #
b110 W
b111 \
1!
b10010110 I
b110 l
#1505
0!
#1510
b10010111 #
b111 W
b1000 \
1!
b10010111 I
b111 l
#1515
0!
#1520
b10011000 #
b1000 W
b1001 \
1!
b10011000 I
b1000 l
#1525
0!
#1530
b10011001 #
b1001 W
b1010 \
1!
b10011001 I
b1001 l
#1535
0!
#1540
b10011010 #
1$
0(
b0 W
b1 \
0_
1`
b100 c
1!
b10011010 I
b0 l
b100 m
#1545
0!
#1550
b10011011 #
16
07
b1 W
b10 \
1!
b10011011 I
1P
0Q
b1 l
#1555
0!
#1560
b10011100 #
b10 W
b11 \
1!
b10011100 I
b10 l
#1565
0!
#1570
b10011101 #
b11 W
b100 \
1!
b10011101 I
b11 l
#1575
0!
#1580
b10011110 #
0$
1,
b0 W
b1 \
0`
b0 c
1!
b10011110 I
b101 i
b0 l
b0 m
#1585
0!
#1590
b10011111 #
15
06
b1 W
b101 X
b10 \
1!
b10011111 I
1O
0P
b1 l
#1595
0!
#1600
b10100000 #
1+
0/
b0 W
b1 \
1a
b101 c
1!
b10100000 I
b0 l
b101 m
#1605
0!
#1610
b10100001 #
08
1:
b1 W
b10 \
1!
b10100001 I
0R
1T
b1 l
#1615
0!
#1620
b10100010 #
b10 W
b11 \
1!
b10100010 I
b10 l
#1625
0!
#1630
b10100011 #
b11 W
b100 \
1!
b10100011 I
b11 l
#1635
0!
#1640
b10100100 #
b100 W
b101 \
1!
b10100100 I
b100 l
#1645
0!
#1650
b10100101 #
b101 W
b110 \
1!
b10100101 I
b101 l
#1655
0!
#1660
b10100110 #
b110 W
b111 \
1!
b10100110 I
b110 l
#1665
0!
#1670
b10100111 #
b111 W
b1000 \
1!
b10100111 I
b111 l
#1675
0!
#1680
b10101000 #
b1000 W
b1001 \
1!
b10101000 I
b1000 l
#1685
0!
#1690
b10101001 #
b1001 W
b1010 \
1!
b10101001 I
b1001 l
#1695
0!
#1700
b10101010 #
1'
0+
b0 W
b1 \
0a
1b
b110 c
1!
b10101010 I
b0 l
b110 m
#1705
0!
#1710
b10101011 #
19
0:
b1 W
b10 \
1!
b10101011 I
1S
0T
b1 l
#1715
0!
#1720
b10101100 #
b10 W
b11 \
1!
b10101100 I
b10 l
#1725
0!
#1730
b10101101 #
b11 W
b100 \
1!
b10101101 I
b11 l
#1735
0!
#1740
b10101110 #
0'
1/
b0 W
b1 \
0b
b0 c
1!
b10101110 I
b1 i
b0 l
b0 m
#1745
0!
#1750
b10101111 #
18
09
b1 W
b1 X
b10 \
1!
b10101111 I
1R
0S
b1 l
#1755
0!
#1760
b10110000 #
1)
0-
b0 W
b1 \
1]
b1 c
1!
b10110000 I
b0 l
b1 m
#1765
0!
#1770
b10110001 #
00
14
b1 W
b10 \
1!
b10110001 I
0J
1N
b1 l
#1775
0!
#1780
b10110010 #
b10 W
b11 \
1!
b10110010 I
b10 l
#1785
0!
#1790
b10110011 #
b11 W
b100 \
1!
b10110011 I
b11 l
#1795
0!
#1800
b10110100 #
b100 W
b101 \
1!
b10110100 I
b100 l
#1805
0!
#1810
b10110101 #
b101 W
b110 \
1!
b10110101 I
b101 l
#1815
0!
#1820
b10110110 #
b110 W
b111 \
1!
b10110110 I
b110 l
#1825
0!
#1830
b10110111 #
b111 W
b1000 \
1!
b10110111 I
b111 l
#1835
0!
#1840
b10111000 #
b1000 W
b1001 \
1!
b10111000 I
b1000 l
#1845
0!
#1850
b10111001 #
b1001 W
b1010 \
1!
b10111001 I
b1001 l
#1855
0!
#1860
b10111010 #
b1010 W
b1011 \
1!
b10111010 I
b1010 l
#1865
0!
#1870
b10111011 #
b1011 W
b1100 \
1!
b10111011 I
b1011 l
#1875
0!
#1880
b10111100 #
b1100 W
b1101 \
1!
b10111100 I
b1100 l
#1885
0!
#1890
b10111101 #
b1101 W
b1110 \
1!
b10111101 I
b1101 l
#1895
0!
#1900
b10111110 #
b1110 W
b1111 \
1!
b10111110 I
b1110 l
#1905
0!
#1910
b10111111 #
b1111 W
b10000 \
1!
b10111111 I
b1111 l
#1915
0!
#1920
b11000000 #
b10000 W
b10001 \
1!
b11000000 I
b10000 l
#1925
0!
#1930
b11000001 #
b10001 W
b10010 \
1!
b11000001 I
b10001 l
#1935
0!
#1940
b11000010 #
b10010 W
b10011 \
1!
b11000010 I
b10010 l
#1945
0!
#1950
b11000011 #
b10011 W
b10100 \
1!
b11000011 I
b10011 l
#1955
0!
#1960
b11000100 #
1%
0)
b0 W
b1 \
0]
1^
b10 c
1!
b11000100 I
b0 l
b10 m
#1965
0!
#1970
b11000101 #
13
04
b1 W
b10 \
1!
b11000101 I
1M
0N
b1 l
#1975
0!
#1980
b11000110 #
b10 W
b11 \
1!
b11000110 I
b10 l
#1985
0!
#1990
b11000111 #
b11 W
b100 \
1!
b11000111 I
b11 l
#1995
0!
#2000
b11001000 #
0%
1-
b0 W
b1 \
0^
b0 c
1!
b11001000 I
b11 i
b0 l
b0 m
#2005
0!
#2010
b11001001 #
10
03
b1 W
b11 X
b10 \
1!
b11001001 I
1J
0M
b1 l
#2015
0!
#2020
b11001010 #
1(
0,
b0 W
b1 \
1_
b11 c
1!
b11001010 I
b0 l
b11 m
#2025
0!
#2030
b11001011 #
05
17
b1 W
b10 \
1!
b11001011 I
0O
1Q
b1 l
#2035
0!
#2040
b11001100 #
b10 W
b11 \
1!
b11001100 I
b10 l
#2045
0!
#2050
b11001101 #
b11 W
b100 \
1!
b11001101 I
b11 l
#2055
0!
#2060
b11001110 #
b100 W
b101 \
1!
b11001110 I
b100 l
#2065
0!
#2070
b11001111 #
b101 W
b110 \
1!
b11001111 I
b101 l
#2075
0!
#2080
b11010000 #
b110 W
b111 \
1!
b11010000 I
b110 l
#2085
0!
#2090
b11010001 #
b111 W
b1000 \
1!
b11010001 I
b111 l
#2095
0!
#2100
b11010010 #
b1000 W
b1001 \
1!
b11010010 I
b1000 l
#2105
0!
#2110
b11010011 #
b1001 W
b1010 \
1!
b11010011 I
b1001 l
#2115
0!
#2120
b11010100 #
1$
0(
b0 W
b1 \
0_
1`
b100 c
1!
b11010100 I
b0 l
b100 m
#2125
0!
#2130
b11010101 #
16
07
b1 W
b10 \
1!
b11010101 I
1P
0Q
b1 l
#2135
0!
#2140
b11010110 #
b10 W
b11 \
1!
b11010110 I
b10 l
#2145
0!
#2150
b11010111 #
b11 W
b100 \
1!
b11010111 I
b11 l
#2155
0!
#2160
b11011000 #
0$
1,
b0 W
b1 \
0`
b0 c
1!
b11011000 I
b101 i
b0 l
b0 m
#2165
0!
#2170
b11011001 #
15
06
b1 W
b101 X
b10 \
1!
b11011001 I
1O
0P
b1 l
#2175
0!
#2180
b11011010 #
1+
0/
b0 W
b1 \
1a
b101 c
1!
b11011010 I
b0 l
b101 m
#2185
0!
#2190
b11011011 #
08
1:
b1 W
b10 \
1!
b11011011 I
0R
1T
b1 l
#2195
0!
#2200
b11011100 #
b10 W
b11 \
1!
b11011100 I
b10 l
#2205
0!
#2210
b11011101 #
b11 W
b100 \
1!
b11011101 I
b11 l
#2215
0!
#2220
b11011110 #
b100 W
b101 \
1!
b11011110 I
b100 l
#2225
0!
#2230
b11011111 #
b101 W
b110 \
1!
b11011111 I
b101 l
#2235
0!
#2240
b11100000 #
b110 W
b111 \
1!
b11100000 I
b110 l
#2245
0!
#2250
b11100001 #
b111 W
b1000 \
1!
b11100001 I
b111 l
#2255
0!
#2260
b11100010 #
b1000 W
b1001 \
1!
b11100010 I
b1000 l
#2265
0!
#2270
b11100011 #
b1001 W
b1010 \
1!
b11100011 I
b1001 l
#2275
0!
#2280
b11100100 #
1'
0+
b0 W
b1 \
0a
1b
b110 c
1!
b11100100 I
b0 l
b110 m
#2285
0!
#2290
b11100101 #
19
0:
b1 W
b10 \
1!
b11100101 I
1S
0T
b1 l
#2295
0!
#2300
b11100110 #
b10 W
b11 \
1!
b11100110 I
b10 l
#2305
0!
#2310
b11100111 #
b11 W
b100 \
1!
b11100111 I
b11 l
#2315
0!
#2320
b11101000 #
0'
1/
b0 W
b1 \
0b
b0 c
1!
b11101000 I
b1 i
b0 l
b0 m
#2325
0!
#2330
b11101001 #
18
09
b1 W
b1 X
b10 \
1!
b11101001 I
1R
0S
b1 l
#2335
0!
#2340
b11101010 #
1)
0-
b0 W
b1 \
1]
b1 c
1!
b11101010 I
b0 l
b1 m
#2345
0!
#2350
b11101011 #
00
14
b1 W
b10 \
1!
b11101011 I
0J
1N
b1 l
#2355
0!
#2360
b11101100 #
b10 W
b11 \
1!
b11101100 I
b10 l
#2365
0!
#2370
b11101101 #
b11 W
b100 \
1!
b11101101 I
b11 l
#2375
0!
#2380
b11101110 #
b100 W
b101 \
1!
b11101110 I
b100 l
#2385
0!
#2390
b11101111 #
b101 W
b110 \
1!
b11101111 I
b101 l
#2395
0!
#2400
b11110000 #
b110 W
b111 \
1!
b11110000 I
b110 l
#2405
0!
#2410
b11110001 #
b111 W
b1000 \
1!
b11110001 I
b111 l
#2415
0!
#2420
b11110010 #
b1000 W
b1001 \
1!
b11110010 I
b1000 l
#2425
0!
#2430
b11110011 #
b1001 W
b1010 \
1!
b11110011 I
b1001 l
#2435
0!
#2440
b11110100 #
b1010 W
b1011 \
1!
b11110100 I
b1010 l
#2445
0!
#2450
b11110101 #
b1011 W
b1100 \
1!
b11110101 I
b1011 l
#2455
0!
#2460
b11110110 #
b1100 W
b1101 \
1!
b11110110 I
b1100 l
#2465
0!
#2470
b11110111 #
b1101 W
b1110 \
1!
b11110111 I
b1101 l
#2475
0!
#2480
b11111000 #
b1110 W
b1111 \
1!
b11111000 I
b1110 l
#2485
0!
#2490
b11111001 #
b1111 W
b10000 \
1!
b11111001 I
b1111 l
#2495
0!
#2500
b11111010 #
b10000 W
b10001 \
1!
b11111010 I
b10000 l
#2505
0!
#2510
b11111011 #
b10001 W
b10010 \
1!
b11111011 I
b10001 l
#2515
0!
#2520
b11111100 #
b10010 W
b10011 \
1!
b11111100 I
b10010 l
#2525
0!
#2530
b11111101 #
b10011 W
b10100 \
1!
b11111101 I
b10011 l
#2535
0!
#2540
b11111110 #
1%
0)
b0 W
b1 \
0]
1^
b10 c
1!
b11111110 I
b0 l
b10 m
#2545
0!
#2550
b11111111 #
13
04
b1 W
b10 \
1!
b11111111 I
1M
0N
b1 l
#2555
0!
#2560
b100000000 #
b10 W
b11 \
1!
b100000000 I
b10 l
#2565
0!
#2570
b100000001 #
b11 W
b100 \
1!
b100000001 I
b11 l
#2575
0!
#2580
b100000010 #
0%
1-
b0 W
b1 \
0^
b0 c
1!
b100000010 I
b11 i
b0 l
b0 m
#2585
0!
#2590
b100000011 #
10
03
b1 W
b11 X
b10 \
1!
b100000011 I
1J
0M
b1 l
#2595
0!
#2600
b100000100 #
1(
0,
b0 W
b1 \
1_
b11 c
1!
b100000100 I
b0 l
b11 m
#2605
0!
#2610
b100000101 #
05
17
b1 W
b10 \
1!
b100000101 I
0O
1Q
b1 l
#2615
0!
#2620
b100000110 #
b10 W
b11 \
1!
b100000110 I
b10 l
#2625
0!
#2630
b100000111 #
b11 W
b100 \
1!
b100000111 I
b11 l
#2635
0!
#2640
b100001000 #
b100 W
b101 \
1!
b100001000 I
b100 l
#2645
0!
#2650
b100001001 #
b101 W
b110 \
1!
b100001001 I
b101 l
#2655
0!
#2660
b100001010 #
b110 W
b111 \
1!
b100001010 I
b110 l
#2665
0!
#2670
b100001011 #
b111 W
b1000 \
1!
b100001011 I
b111 l
#2675
0!
#2680
b100001100 #
b1000 W
b1001 \
1!
b100001100 I
b1000 l
#2685
0!
#2690
b100001101 #
b1001 W
b1010 \
1!
b100001101 I
b1001 l
#2695
0!
#2700
b100001110 #
1$
0(
b0 W
b1 \
0_
1`
b100 c
1!
b100001110 I
b0 l
b100 m
#2705
0!
#2710
b100001111 #
16
07
b1 W
b10 \
1!
b100001111 I
1P
0Q
b1 l
#2715
0!
#2720
b100010000 #
b10 W
b11 \
1!
b100010000 I
b10 l
#2725
0!
#2730
b100010001 #
b11 W
b100 \
1!
b100010001 I
b11 l
#2735
0!
#2740
b100010010 #
0$
1,
b0 W
b1 \
0`
b0 c
1!
b100010010 I
b101 i
b0 l
b0 m
#2745
0!
#2750
b100010011 #
15
06
b1 W
b101 X
b10 \
1!
b100010011 I
1O
0P
b1 l
#2755
0!
#2760
b100010100 #
1+
0/
b0 W
b1 \
1a
b101 c
1!
b100010100 I
b0 l
b101 m
#2765
0!
#2770
b100010101 #
08
1:
b1 W
b10 \
1!
b100010101 I
0R
1T
b1 l
#2775
0!
#2780
b100010110 #
b10 W
b11 \
1!
b100010110 I
b10 l
#2785
0!
